<?xml version="1.0" encoding="UTF-8" standalone="no"?>
<!-- Created with Inkscape (http://www.inkscape.org/) -->

<svg
   xmlns:dc="http://purl.org/dc/elements/1.1/"
   xmlns:cc="http://creativecommons.org/ns#"
   xmlns:rdf="http://www.w3.org/1999/02/22-rdf-syntax-ns#"
   xmlns:svg="http://www.w3.org/2000/svg"
   xmlns="http://www.w3.org/2000/svg"
   xmlns:sodipodi="http://sodipodi.sourceforge.net/DTD/sodipodi-0.dtd"
   xmlns:inkscape="http://www.inkscape.org/namespaces/inkscape"
   width="14.55738mm"
   height="14.55738mm"
   viewBox="0 0 14.55738 14.55738"
   version="1.1"
   id="svg8"
   inkscape:version="0.92.2 (unknown)"
   sodipodi:docname="bullet.svg">
  <defs
     id="defs2" />
  <sodipodi:namedview
     id="base"
     pagecolor="#ffffff"
     bordercolor="#666666"
     borderopacity="1.0"
     inkscape:pageopacity="0.0"
     inkscape:pageshadow="2"
     inkscape:zoom="1.979899"
     inkscape:cx="-164.99888"
     inkscape:cy="12.211116"
     inkscape:document-units="mm"
     inkscape:current-layer="text817"
     showgrid="false"
     fit-margin-top="0"
     fit-margin-left="0"
     fit-margin-right="0"
     fit-margin-bottom="0"
     inkscape:window-width="2560"
     inkscape:window-height="1381"
     inkscape:window-x="1366"
     inkscape:window-y="0"
     inkscape:window-maximized="1" />
  <metadata
     id="metadata5">
    <rdf:RDF>
      <cc:Work
         rdf:about="">
        <dc:format>image/svg+xml</dc:format>
        <dc:type
           rdf:resource="http://purl.org/dc/dcmitype/StillImage" />
        <dc:title></dc:title>
      </cc:Work>
    </rdf:RDF>
  </metadata>
  <g
     inkscape:label="Ebene 1"
     inkscape:groupmode="layer"
     id="layer1"
     transform="translate(-70.852016,-142.24294)">
    <g
       aria-label="✓"
       style="font-style:normal;font-variant:normal;font-weight:normal;font-stretch:normal;font-size:18.52083397px;line-height:125%;font-family:Bellefair;-inkscape-font-specification:Bellefair;letter-spacing:0px;word-spacing:0px;fill:#000000;fill-opacity:1;stroke:none;stroke-width:0.26458332px;stroke-linecap:butt;stroke-linejoin:miter;stroke-opacity:1"
       id="text817">
      <g
         aria-label="•"
         style="font-style:normal;font-variant:normal;font-weight:normal;font-stretch:normal;font-size:48.69642639px;line-height:125%;font-family:Bellefair;-inkscape-font-specification:Bellefair;letter-spacing:0px;word-spacing:0px;fill:#000000;fill-opacity:1;stroke:none;stroke-width:0.26458332px;stroke-linecap:butt;stroke-linejoin:miter;stroke-opacity:1"
         id="text824">
        <path
           d="m 78.130707,144.99288 q 2.04525,0 3.213964,1.3635 1.168714,1.3148 1.168714,3.16527 0,1.80176 -1.168714,3.16526 -1.168714,1.3635 -3.213964,1.3635 -2.04525,0 -3.213964,-1.3635 -1.168714,-1.3635 -1.168714,-3.16526 0,-1.85047 1.168714,-3.16527 1.168714,-1.3635 3.213964,-1.3635 z"
           style="stroke-width:0.26458332px"
           id="path1395" />
      </g>
    </g>
  </g>
</svg>
